o convex_0
v 0.228170 -1.891918 0.395180
v 0.405539 -1.773707 0.986296
v 0.405539 -1.891918 0.986296
v 0.405539 -1.773707 0.395180
v 0.228170 -1.773707 0.986296
v 0.228170 -1.891918 0.986296
v 0.405539 -1.891918 0.395180
v 0.228170 -1.773707 0.395180
f 5 4 8 
f 2 3 4 
f 3 2 5 
f 2 4 5 
f 1 3 6 
f 5 1 6 
f 3 5 6 
f 3 1 7 
f 4 3 7 
f 1 4 7 
f 4 1 8 
f 1 5 8 
o convex_1
v 0.228170 1.773707 0.395180
v 0.405539 1.891930 0.986296
v 0.405539 1.773707 0.986296
v 0.405539 1.891930 0.395180
v 0.228170 1.891930 0.986296
v 0.228170 1.891930 0.395180
v 0.405539 1.773707 0.395180
v 0.228170 1.773707 0.986296
f 11 13 16 
f 10 11 12 
f 11 10 13 
f 10 12 13 
f 12 9 14 
f 9 13 14 
f 13 12 14 
f 11 9 15 
f 12 11 15 
f 9 12 15 
f 9 11 16 
f 13 9 16 
o convex_2
v -1.722907 -1.832818 -0.018798
v -1.782013 0.000000 0.335941
v -1.841118 0.000000 0.335941
v -1.782013 0.000000 -0.018798
v -1.841118 -1.832818 0.335941
v -1.841118 -1.832818 -0.018798
v -1.722907 -1.773614 0.335941
v -1.841118 0.000000 -0.018798
v -1.722907 -1.832818 0.335941
v -1.722907 -1.773614 -0.018798
f 23 17 26 
f 19 18 20 
f 18 19 21 
f 21 19 22 
f 20 17 22 
f 17 21 22 
f 20 18 23 
f 18 21 23 
f 19 20 24 
f 22 19 24 
f 20 22 24 
f 21 17 25 
f 17 23 25 
f 23 21 25 
f 17 20 26 
f 20 23 26 
o convex_3
v 0.169046 -1.773695 0.335941
v -1.722895 -1.832807 -0.018798
v -1.722895 -1.773695 -0.018798
v -1.722895 -1.832807 0.335941
v 0.169046 -1.832807 -0.018798
v -1.722895 -1.773695 0.335941
v 0.169046 -1.773695 -0.018798
v 0.169046 -1.832807 0.335941
f 30 31 34 
f 29 28 30 
f 28 29 31 
f 30 28 31 
f 27 29 32 
f 29 30 32 
f 30 27 32 
f 29 27 33 
f 27 31 33 
f 31 29 33 
f 27 30 34 
f 31 27 34 
o convex_4
v -1.841142 0.000000 -0.018798
v -1.782018 1.714572 0.335941
v -1.841142 1.714572 0.335941
v -1.782018 0.000000 0.335941
v -1.782018 1.714572 -0.018798
v -1.841142 1.714572 -0.018798
v -1.841142 0.000000 0.335941
v -1.782018 0.000000 -0.018798
f 39 38 42 
f 36 37 38 
f 37 36 39 
f 36 38 39 
f 35 37 40 
f 39 35 40 
f 37 39 40 
f 37 35 41 
f 38 37 41 
f 35 38 41 
f 38 35 42 
f 35 39 42 
o convex_5
v 0.169046 1.773695 0.335941
v -1.841142 1.714584 -0.018798
v -1.841142 1.832807 -0.018798
v -1.841142 1.714584 0.335941
v 0.169046 1.832807 -0.018798
v -1.841142 1.832807 0.335941
v 0.169046 1.773695 -0.018798
v 0.169046 1.832807 0.335941
v -1.781914 1.714584 0.335941
v -1.781914 1.714584 -0.018798
f 51 44 52 
f 45 44 46 
f 44 45 47 
f 45 46 48 
f 46 43 48 
f 47 45 48 
f 47 43 49 
f 44 47 49 
f 43 47 50 
f 48 43 50 
f 47 48 50 
f 46 44 51 
f 43 46 51 
f 49 43 51 
f 49 51 52 
f 44 49 52 
o convex_6
v 1.706249 -1.832813 0.335918
v 0.169046 -1.832813 -0.018798
v 0.169046 -1.773707 -0.018798
v 0.228332 -1.773707 0.395065
v 0.228332 -1.891918 0.395065
v 1.706249 -1.773707 -0.018798
v 0.405736 -1.891918 -0.018798
v 1.706249 -1.773707 0.335918
v 1.706249 -1.832813 -0.018798
v 0.405736 -1.891918 0.395065
v 0.228332 -1.891918 -0.018798
v 0.169046 -1.773707 0.335918
v 0.169046 -1.832813 0.335918
v 0.405736 -1.773707 0.395065
f 62 60 66 
f 54 55 58 
f 55 56 58 
f 54 58 59 
f 53 58 60 
f 58 56 60 
f 58 53 61 
f 53 59 61 
f 59 58 61 
f 56 57 62 
f 59 53 62 
f 57 59 62 
f 53 60 62 
f 57 54 63 
f 59 57 63 
f 54 59 63 
f 55 54 64 
f 56 55 64 
f 57 56 64 
f 57 64 65 
f 54 57 65 
f 64 54 65 
f 60 56 66 
f 56 62 66 
o convex_7
v 1.706249 -1.832818 -0.018798
v 1.824495 0.000000 0.335941
v 1.824495 0.000000 -0.018798
v 1.824495 -1.832818 0.335941
v 1.706249 -1.773614 0.335941
v 1.824495 -1.832818 -0.018798
v 1.765372 0.000000 -0.018798
v 1.765372 0.000000 0.335941
v 1.706249 -1.832818 0.335941
v 1.706249 -1.773614 -0.018798
f 71 73 76 
f 69 68 70 
f 70 68 71 
f 67 69 72 
f 69 70 72 
f 70 67 72 
f 69 67 73 
f 68 69 73 
f 73 71 74 
f 71 68 74 
f 68 73 74 
f 67 70 75 
f 71 67 75 
f 70 71 75 
f 67 71 76 
f 73 67 76 
o convex_8
v 1.765372 0.000000 -0.018798
v 1.824495 1.714572 0.335941
v 1.765372 1.714572 0.335941
v 1.824495 0.000000 0.335941
v 1.824495 1.714572 -0.018798
v 1.765372 1.714572 -0.018798
v 1.765372 0.000000 0.335941
v 1.824495 0.000000 -0.018798
f 81 80 84 
f 78 79 80 
f 79 78 81 
f 78 80 81 
f 77 79 82 
f 81 77 82 
f 79 81 82 
f 79 77 83 
f 80 79 83 
f 77 80 83 
f 80 77 84 
f 77 81 84 
o convex_9
v 1.824495 1.832807 0.335918
v 0.169046 1.773707 -0.018798
v 0.169046 1.773707 0.335918
v 1.824495 1.714572 -0.018798
v 0.405632 1.891942 -0.018798
v 0.228193 1.891942 0.395065
v 1.824495 1.714572 0.335918
v 1.824495 1.832807 -0.018798
v 0.405632 1.773707 0.395065
v 0.228193 1.891942 -0.018798
v 0.405632 1.891942 0.395065
v 1.765187 1.714572 0.335918
v 0.169046 1.832807 -0.018798
v 0.228193 1.773707 0.395065
v 1.765187 1.714572 -0.018798
v 0.169046 1.832807 0.335918
f 90 97 100 
f 88 86 89 
f 88 85 91 
f 85 88 92 
f 89 85 92 
f 88 89 92 
f 91 85 93 
f 89 86 94 
f 90 89 94 
f 85 89 95 
f 89 90 95 
f 93 85 95 
f 90 93 95 
f 87 86 96 
f 88 91 96 
f 91 93 96 
f 86 87 97 
f 94 86 97 
f 90 94 97 
f 90 87 98 
f 93 90 98 
f 87 96 98 
f 96 93 98 
f 86 88 99 
f 96 86 99 
f 88 96 99 
f 87 90 100 
f 97 87 100 
